Group	scar_length	n	total_scars
Flt3-CreERT2	60	3	2164
Flt3-CreERT2	61	5	2164
Flt3-CreERT2	62	4	2164
Flt3-CreERT2	63	6	2164
Flt3-CreERT2	64	8	2164
Flt3-CreERT2	65	9	2164
Flt3-CreERT2	66	12	2164
Flt3-CreERT2	67	12	2164
Flt3-CreERT2	68	37	2164
Flt3-CreERT2	69	488	2164
Flt3-CreERT2	70	301	2164
Flt3-CreERT2	71	489	2164
Flt3-CreERT2	72	209	2164
Flt3-CreERT2	73	392	2164
Flt3-CreERT2	74	80	2164
Flt3-CreERT2	75	35	2164
Flt3-CreERT2	76	25	2164
Flt3-CreERT2	77	27	2164
Flt3-CreERT2	78	9	2164
Flt3-CreERT2	79	3	2164
Flt3-CreERT2	80	3	2164
Flt3-CreERT2	81	1	2164
Flt3-CreERT2	82	2	2164
Flt3-CreERT2	83	4	2164
Lck-Cre	60	2656	387555
Lck-Cre	61	3058	387555
Lck-Cre	62	3666	387555
Lck-Cre	63	4330	387555
Lck-Cre	64	5844	387555
Lck-Cre	65	7392	387555
Lck-Cre	66	8236	387555
Lck-Cre	67	10617	387555
Lck-Cre	68	13908	387555
Lck-Cre	69	22774	387555
Lck-Cre	70	27866	387555
Lck-Cre	71	35787	387555
Lck-Cre	72	41766	387555
Lck-Cre	73	46663	387555
Lck-Cre	74	45305	387555
Lck-Cre	75	49865	387555
Lck-Cre	76	30399	387555
Lck-Cre	77	14499	387555
Lck-Cre	78	6464	387555
Lck-Cre	79	3000	387555
Lck-Cre	80	1479	387555
Lck-Cre	81	832	387555
Lck-Cre	82	524	387555
Lck-Cre	83	388	387555
Lck-Cre	84	237	387555
Lck-iNKT TCR	60	879	143468
Lck-iNKT TCR	61	1013	143468
Lck-iNKT TCR	62	1204	143468
Lck-iNKT TCR	63	1382	143468
Lck-iNKT TCR	64	1953	143468
Lck-iNKT TCR	65	2464	143468
Lck-iNKT TCR	66	2805	143468
Lck-iNKT TCR	67	3739	143468
Lck-iNKT TCR	68	4818	143468
Lck-iNKT TCR	69	14037	143468
Lck-iNKT TCR	70	11704	143468
Lck-iNKT TCR	71	15201	143468
Lck-iNKT TCR	72	16316	143468
Lck-iNKT TCR	73	17513	143468
Lck-iNKT TCR	74	15757	143468
Lck-iNKT TCR	75	16253	143468
Lck-iNKT TCR	76	8541	143468
Lck-iNKT TCR	77	3899	143468
Lck-iNKT TCR	78	1877	143468
Lck-iNKT TCR	79	861	143468
Lck-iNKT TCR	80	464	143468
Lck-iNKT TCR	81	283	143468
Lck-iNKT TCR	82	237	143468
Lck-iNKT TCR	83	159	143468
Lck-iNKT TCR	84	109	143468
